{
  "kind": "collectionType",
  "connection": "default",
  "collectionName": "page",
  "info": {
    "name": "Página"
  },
  "options": {
    "increments": true,
    "timestamps": true
  },
  "attributes": {
    "Titulo": {
      "type": "string",
      "private": false,
      "required": true,
      "unique": false
    },
    "Contenido": {
      "type": "richtext",
      "required": true
    },
    "Galeria": {
      "collection": "file",
      "via": "related",
      "plugin": "upload",
      "required": false
    },
    "Destacada": {
      "model": "file",
      "via": "related",
      "plugin": "upload",
      "required": false
    }
  }
}
